stm32f4xx_hal_msp.c:64:6:HAL_MspInit	16	static
stm32f4xx_hal_msp.c:93:6:HAL_CAN_MspInit	48	static
stm32f4xx_hal_msp.c:129:6:HAL_CAN_MspDeInit	16	static
stm32f4xx_hal_msp.c:158:6:HAL_UART_MspInit	48	static
stm32f4xx_hal_msp.c:197:6:HAL_UART_MspDeInit	16	static
