<?xml version="1.0" encoding="UTF-8"?>
<session version="1.0">
<refactoring comment="Rename resource &apos;005_PLL_SYSCLK/004_HSE_8mhz.ioc&apos; to &apos;005_PLL_SYSCLK.ioc&apos;" description="Rename resource &apos;004_HSE_8mhz.ioc&apos;" flags="7" id="org.eclipse.ltk.core.refactoring.rename.resource" input="004_HSE_8mhz.ioc" name="005_PLL_SYSCLK.ioc" stamp="1609780633222" updateReferences="true"/>
</session>