main.c:76:5:main	160	static
main.c:136:6:SystemClock_Config	88	static
main.c:182:13:MX_TIM2_Init	48	static
main.c:240:13:MX_TIM6_Init	16	static
main.c:279:13:MX_USART2_UART_Init	8	static
main.c:312:13:MX_GPIO_Init	48	static
main.c:362:6:Error_Handler	4	static
main.c:370:6:HAL_TIM_IC_CaptureCallback	16	static
main.c:387:6:HAL_TIM_PeriodElapsedCallback	16	static
