10:14:18 **** Incremental Build of configuration Debug for project 0014_CAN_LOOPBACK_it ****
make -j4 all 
arm-none-eabi-size   0014_CAN_LOOPBACK_it.elf 
   text	   data	    bss	    dec	    hex	filename
  16692	    120	   1688	  18500	   4844	0014_CAN_LOOPBACK_it.elf
Finished building: default.size.stdout
 

10:14:18 Build Finished. 0 errors, 0 warnings. (took 696ms)

