18:37:16 **** Incremental Build of configuration Debug for project 009.1_TIM6_clk_generate_TIM2_capture_uart_display ****
make -j4 all 
arm-none-eabi-size   009.1_TIM6_clk_generate_TIM2_capture_uart_display.elf 
   text	   data	    bss	    dec	    hex	filename
  26208	    488	   1792	  28488	   6f48	009.1_TIM6_clk_generate_TIM2_capture_uart_display.elf
Finished building: default.size.stdout
 

18:37:18 Build Finished. 0 errors, 0 warnings. (took 1s.116ms)

