09:43:26 **** Incremental Build of configuration Debug for project 009_timer_capture_3 ****
make -j4 all 
arm-none-eabi-size   009_timer_capture_3.elf 
   text	   data	    bss	    dec	    hex	filename
  14416	    120	   1712	  16248	   3f78	009_timer_capture_3.elf
Finished building: default.size.stdout
 

09:43:27 Build Finished. 0 errors, 0 warnings. (took 912ms)

