<?xml version="1.0" encoding="UTF-8"?>
<session version="1.0">
<refactoring comment="Rename resource &apos;0014_CAN_LOOPBACK_it/0014_CAN_LOOPBACK.ioc&apos; to &apos;0014_CAN_LOOPBACK_it.ioc&apos;" description="Rename resource &apos;0014_CAN_LOOPBACK.ioc&apos;" flags="7" id="org.eclipse.ltk.core.refactoring.rename.resource" input="0014_CAN_LOOPBACK.ioc" name="0014_CAN_LOOPBACK_it.ioc" stamp="1611239856681" updateReferences="true"/>
</session>